<svg xmlns="http://www.w3.org/2000/svg" width="100" height="100" viewBox="0 0 100 100">
  <path id="neutral" d="M179.054,673.054H119a10,10,0,0,1-10-10V603a10,10,0,0,1,10-10h60.054a10,10,0,0,1,10,10v60.054A10,10,0,0,1,179.054,673.054Zm-10.494-64.11h-7.9v34.461H160.4l-23.621-34.461h-7.829v47.777h7.829v-34.93h0.268l23.889,34.93h7.628V608.944Z" transform="translate(-99.031 -583.031)"/>
</svg>
