<svg id="no_score" xmlns="http://www.w3.org/2000/svg" width="100" height="100" viewBox="0 0 100 100">
  <defs>
    <style>
      .cls-1 {
        fill: #9b8a67;
        opacity:0.3;
      }

      .cls-1, .cls-2 {
        fill-rule: evenodd;
      }

      .cls-2 {
        fill: #9b8a67;
      }
    </style>
  </defs>
  <path id="_0" data-name="0" class="cls-1" d="M439.155,1302.85H408.842a8.843,8.843,0,0,1-8.842-8.84v-25.17a8.843,8.843,0,0,1,8.842-8.84h41.552Zm-10.574-25.77a6.854,6.854,0,0,0-.908-2.1,3.9,3.9,0,0,0-1.466-1.32,4.51,4.51,0,0,0-2.064-.46,4.164,4.164,0,0,0-2.648.83,5.013,5.013,0,0,0-1.585,2.35,12.5,12.5,0,0,0-.534,4.03q0,3.975,1.446,5.73a4.065,4.065,0,0,0,3.321,1.47,4.128,4.128,0,0,0,2.658-.84,4.984,4.984,0,0,0,1.58-2.35,12.537,12.537,0,0,0,.529-4.01A13.417,13.417,0,0,0,428.581,1277.08Zm-4.438,9.1a2.5,2.5,0,0,1-2.079-1.15q-0.843-1.14-.843-4.62c0-2.32.309-3.9,0.928-4.76a2.308,2.308,0,0,1,1.974-1.01,2.525,2.525,0,0,1,2.1,1.14c0.562,0.77.843,2.31,0.843,4.63s-0.281,3.85-.843,4.62A2.5,2.5,0,0,1,424.143,1286.18Z" transform="translate(-394.578 -1231.42)"/>
  <path id="_0_拷贝" data-name="0 拷贝" class="cls-2" d="M450.009,1260h30.313a8.843,8.843,0,0,1,8.842,8.84v25.17a8.843,8.843,0,0,1-8.842,8.84H438.77Zm10.574,25.77a6.854,6.854,0,0,0,.908,2.1,3.9,3.9,0,0,0,1.466,1.32,4.51,4.51,0,0,0,2.064.46,4.164,4.164,0,0,0,2.648-.83,5.013,5.013,0,0,0,1.585-2.35,12.5,12.5,0,0,0,.534-4.03q0-3.975-1.446-5.73a4.065,4.065,0,0,0-3.321-1.47,4.181,4.181,0,0,0-2.658.83,5.066,5.066,0,0,0-1.58,2.36,12.537,12.537,0,0,0-.529,4.01A13.417,13.417,0,0,0,460.583,1285.77Zm4.438-9.1a2.5,2.5,0,0,1,2.079,1.15q0.843,1.14.843,4.62c0,2.32-.309,3.9-0.928,4.76a2.308,2.308,0,0,1-1.974,1.01,2.525,2.525,0,0,1-2.1-1.14c-0.562-.77-0.843-2.31-0.843-4.63s0.281-3.85.843-4.62A2.5,2.5,0,0,1,465.021,1276.67Z" transform="translate(-394.578 -1231.42)"/>
</svg>
