<?xml version="1.0" encoding="UTF-8"?>
<svg width="20px" height="20px" viewBox="0 0 20 20" version="1.1" xmlns="http://www.w3.org/2000/svg" xmlns:xlink="http://www.w3.org/1999/xlink">
    <title>icon/体育/登录@2x</title>
    <defs>
        <linearGradient x1="31.9897042%" y1="32.7830377%" x2="118.804445%" y2="129.162218%" id="linearGradient-1">
            <stop stop-color="#EAEAEA" offset="0%"></stop>
            <stop stop-color="#A2A2A2" stop-opacity="0.6" offset="100%"></stop>
        </linearGradient>
        <linearGradient x1="31.9897042%" y1="43.6310287%" x2="118.804445%" y2="79.2840215%" id="linearGradient-2">
            <stop stop-color="#EAEAEA" offset="0%"></stop>
            <stop stop-color="#A2A2A2" stop-opacity="0.6" offset="100%"></stop>
        </linearGradient>
    </defs>
    <g id="icon/体育/登录" stroke="none" stroke-width="1" fill="none" fill-rule="evenodd">
        <circle id="椭圆形" fill="url(#linearGradient-1)" cx="10" cy="6" r="4"></circle>
        <path d="M10.7504935,10.9988791 C10.5974688,11.2289469 10.4646658,11.475893 10.3520952,11.7396834 C10.1174104,12.2898102 10,12.8728868 10,13.4890103 C10,14.1052502 10.1174104,14.688288 10.3520952,15.2384343 C10.5868772,15.7885417 10.9095955,16.2689246 11.3202698,16.6796994 C11.7310022,17.0904743 12.2114781,17.4131954 12.7616196,17.6479017 C13.3117611,17.8827051 13.8948327,18 14.5109508,18 L14.5109508,18 L5,18 C3.8954305,18 3,17.1045695 3,16 L3,14.5 C3,12.5670034 4.56700338,11 6.5,11 Z" id="形状结合" fill="url(#linearGradient-2)"></path>
        <path d="M14.5085173,10 C14.9877505,10 15.4412657,10.0912747 15.8691384,10.2738844 C16.2970263,10.4564187 16.6678302,10.7046 16.9815955,11.0184133 C17.295391,11.332136 17.5435249,11.7030337 17.7261028,12.1308649 C17.9086506,12.5587413 18,13.0122302 18,13.4914524 C18,13.9707351 17.9086506,14.424224 17.7261028,14.8521155 C17.5435551,15.2800071 17.295391,15.653608 16.9815955,15.9730996 C16.6677849,16.2926062 16.2970112,16.5436115 15.8691384,16.7261458 C15.4412808,16.9087706 14.9877656,17 14.5085173,17 C14.0293143,17 13.5758142,16.9087706 13.1479263,16.7261458 C12.7200385,16.5435964 12.3463351,16.2925911 12.0268765,15.9730996 C11.7074632,15.653608 11.45646,15.2799769 11.2738518,14.8521155 C11.0913192,14.424224 11,13.9707502 11,13.4914524 C11,13.0122453 11.0913192,12.5587413 11.2738518,12.1308649 C11.4564449,11.7029884 11.7074783,11.3320907 12.0268765,11.0184133 C12.3463351,10.7046 12.7200234,10.4564187 13.1479263,10.2738844 C13.5757991,10.0912898 14.0292992,10 14.5085173,10 Z M15.0678371,11.5203792 C14.872575,11.325117 14.5559925,11.325117 14.3607303,11.5203792 C14.1654682,11.7156413 14.1654682,12.0322238 14.3607303,12.227486 L14.3607303,12.227486 L14.8830127,12.7499326 L12.4330127,12.75 C12.1568703,12.75 11.9330127,12.9738576 11.9330127,13.25 C11.9330127,13.5261424 12.1568703,13.75 12.4330127,13.75 L12.4330127,13.75 L15.0450127,13.7499326 L14.3607303,14.4345928 C14.1654682,14.6298549 14.1654682,14.9464374 14.3607303,15.1416995 C14.5559925,15.3369617 14.872575,15.3369617 15.0678371,15.1416995 L15.0678371,15.1416995 L16.4820507,13.727486 C16.5688338,13.6407028 16.6170467,13.5299551 16.6266893,13.4165447 L16.6266893,13.4165447 L16.6266893,13.245534 C16.6170467,13.1321236 16.5688338,13.0213759 16.4820507,12.9345928 L16.4820507,12.9345928 Z" id="形状结合" fill="url(#linearGradient-1)"></path>
        <g id="编组-2" transform="translate(11.933013, 11.373933)"></g>
    </g>
</svg>