<svg xmlns="http://www.w3.org/2000/svg" width="100" height="100" viewBox="0 0 100 100">
  <path d="M108.722,310.059v52.334h6.01V337.985H138.8v24.408h6.011V310.059H138.8v22.722H114.732V310.059h-6.01Zm42.529,0v5.2H167.4v47.13h5.937v-47.13H189.48v-5.2H151.251Z" transform="translate(-99.094 -286.234)"/>
</svg>
