<svg id="no_data" xmlns="http://www.w3.org/2000/svg" width="100" height="100" viewBox="0 0 100 100">
  <defs>
    <style>
      .cls-1 {
        fill: #dbdbdb;
      }

      .cls-2, .cls-3 {
        fill: #8a8a8a;
      }

      .cls-2 {
        fill-rule: evenodd;
      }
    </style>
  </defs>
  <rect id="矩形_1" data-name="矩形 1" class="cls-1" x="8" y="23.75" width="84" height="9" rx="4" ry="4"/>
  <path id="矩形_1_拷贝_4" data-name="矩形 1 拷贝 4" class="cls-2" d="M57.271,74.5H94.729a4,4,0,0,1,4,4v1a4,4,0,0,1-4,4H57.271a4,4,0,0,1-4-4v-1A4,4,0,0,1,57.271,74.5Z" transform="translate(-45 -51.25)"/>
  <rect id="矩形_1_拷贝" data-name="矩形 1 拷贝" class="cls-1" x="8" y="46.75" width="84" height="9" rx="4" ry="4"/>
  <rect id="矩形_1_拷贝_2" data-name="矩形 1 拷贝 2" class="cls-1" x="8" y="67.75" width="84" height="9" rx="4" ry="4"/>
  <rect id="矩形_1_拷贝_3" data-name="矩形 1 拷贝 3" class="cls-3" x="38.625" y="67.75" width="53.375" height="9" rx="4" ry="4"/>
</svg>
