<svg width="24px" height="24px" viewBox="0 0 24 24" version="1.1" xmlns="http://www.w3.org/2000/svg" xmlns:xlink="http://www.w3.org/1999/xlink">
    <g >
        <rect id="矩形" opacity="0" x="0" y="0" width="24" height="24"></rect>
        <path d="M17.363961,11.7071068 L12.7071068,16.363961 C12.3165825,16.7544853 11.6834175,16.7544853 11.2928932,16.363961 L6.63603897,11.7071068 C6.24551468,11.3165825 6.24551468,10.6834175 6.63603897,10.2928932 C6.82357535,10.1053568 7.07792926,10 7.34314575,10 L16.6568542,10 C17.209139,10 17.6568542,10.4477153 17.6568542,11 C17.6568542,11.2652165 17.5514974,11.5195704 17.363961,11.7071068 Z"></path>
    </g>
</svg>
